Project 3: NewPackageLecture9 Tutorial
…
read_csv("../Data/my_gapminder.csv")
#> 
#> -- Column specification --------------------------------------------------------
#> cols(
#>   country = col_character(),
#>   continent = col_character(),
#>   year = col_double(),
#>   lifeExp = col_double(),
#>   pop = col_double(),
#>   gdpPercap = col_double()
#> )
#> # A tibble: 1,704 x 6
#>    country     continent  year lifeExp      pop gdpPercap
#>    <chr>       <chr>     <dbl>   <dbl>    <dbl>     <dbl>
#>  1 Afghanistan Asia       1952    28.8  8425333      779.
#>  2 Afghanistan Asia       1957    30.3  9240934      821.
#>  3 Afghanistan Asia       1962    32.0 10267083      853.
#>  4 Afghanistan Asia       1967    34.0 11537966      836.
#>  5 Afghanistan Asia       1972    36.1 13079460      740.
#>  6 Afghanistan Asia       1977    38.4 14880372      786.
#>  7 Afghanistan Asia       1982    39.9 12881816      978.
#>  8 Afghanistan Asia       1987    40.8 13867957      852.
#>  9 Afghanistan Asia       1992    41.7 16317921      649.
#> 10 Afghanistan Asia       1997    41.8 22227415      635.
#> # ... with 1,694 more rows

read_csv("../Data/my_penguins.csv")
#> 
#> -- Column specification --------------------------------------------------------
#> cols(
#>   species = col_character(),
#>   island = col_character(),
#>   bill_length_mm = col_double(),
#>   bill_depth_mm = col_double(),
#>   flipper_length_mm = col_double(),
#>   body_mass_g = col_double(),
#>   sex = col_character(),
#>   year = col_double()
#> )
#> # A tibble: 344 x 8
#>    species island    bill_length_mm bill_depth_mm flipper_length_mm body_mass_g
#>    <chr>   <chr>              <dbl>         <dbl>             <dbl>       <dbl>
#>  1 Adelie  Torgersen           39.1          18.7               181        3750
#>  2 Adelie  Torgersen           39.5          17.4               186        3800
#>  3 Adelie  Torgersen           40.3          18                 195        3250
#>  4 Adelie  Torgersen           NA            NA                  NA          NA
#>  5 Adelie  Torgersen           36.7          19.3               193        3450
#>  6 Adelie  Torgersen           39.3          20.6               190        3650
#>  7 Adelie  Torgersen           38.9          17.8               181        3625
#>  8 Adelie  Torgersen           39.2          19.6               195        4675
#>  9 Adelie  Torgersen           34.1          18.1               193        3475
#> 10 Adelie  Torgersen           42            20.2               190        4250
#> # ... with 334 more rows, and 2 more variables: sex <chr>, year <dbl>
…
